Atividades_Guais/2024-2_arq1_guia_09/Guia_09GTKWave/ Guia_0903.vcd
$date
	Fri Sep 27 22:45:16 2024
$end
$version
	GTKWave Analyzer v3.3.104 (w)1999-2020 BSI
$end
$timescale
	1 s
$end
$scope module Guia_0903 $end
$var wire 1 # p1 $end
$var wire 1 " clock $end
$upscope $end
$enddefinitions $end
#0
$dumpvars
0"
0#
$end
#12
1"
#24
0"
#36
1"
1#
#48
0"
#60
1"
#72
0"
0#
#84
1"
#96
0"
#108
1"
1#
#120
0"
#132
1"
#144
0"
0#
#156
1"
#168
0"
#180
1"
1#
#192
0"
#204
1"
#216
0"
0#
#228
1"
#240
0"
#252
1"
1#
#264
0"
#276
1"
#288
0"
0#
#300
1"
#312
0"
#324
1"
1#
#336
0"
#348
1"
#360
0"
0#
#372
1"
#384
0"
#396
1"
1#
#408
0"
#420
1"
#432
0"
0#
#444
1"
#456
0"
#468
1"
1#
