Atividades_Guais/2024-2_arq1_guia_09/Guia_09GTKWave/ Guia_0905.vcd
$date
	Sat Sep 28 09:07:24 2024
$end
$version
	GTKWave Analyzer v3.3.104 (w)1999-2020 BSI
$end
$timescale
	1 s
$end
$scope module Guia_0905 $end
$var wire 1 " clock $end
$var wire 1 # p1_0901 $end
$var wire 1 $ p2_0905 $end
$upscope $end
$enddefinitions $end
#0
$dumpvars
1$
0"
1#
$end
#3
0#
#4
0$
#6
1$
1#
#9
0#
#10
0$
#12
1$
1#
1"
#15
0#
#16
0$
#18
1$
1#
#21
0#
#22
0$
#24
1$
1#
0"
#27
0#
#28
0$
#30
1$
1#
#33
0#
#34
0$
#36
1$
1#
1"
#39
0#
#40
0$
#42
1$
1#
#45
0#
#46
0$
#48
1$
1#
0"
#51
0#
#52
0$
#54
1$
1#
#57
0#
#58
0$
#60
1$
1#
1"
#63
0#
#64
0$
#66
1$
1#
#69
0#
#70
0$
#72
1$
1#
0"
#75
0#
#76
0$
#78
1$
1#
#81
0#
#82
0$
#84
1$
1#
1"
#87
0#
#88
0$
#90
1$
1#
#93
0#
#94
0$
#96
1$
1#
0"
#99
0#
#100
0$
#102
1$
1#
#105
0#
#106
0$
#108
1$
1#
1"
#111
0#
#112
0$
#114
1$
1#
#117
0#
#118
0$
#120
1$
1#
0"
#123
0#
#124
0$
#126
1$
1#
#129
0#
#130
0$
#132
1$
1#
1"
#135
0#
#136
0$
#138
1$
1#
#141
0#
#142
0$
#144
1$
1#
0"
#147
0#
#148
0$
#150
1$
1#
#153
0#
#154
0$
#156
1$
1#
1"
#159
0#
#160
0$
#162
1$
1#
#165
0#
#166
0$
#168
1$
1#
0"
#171
0#
#172
0$
#174
1$
1#
#177
0#
#178
0$
#180
1$
1#
1"
#183
0#
#184
0$
#186
1$
1#
#189
0#
#190
0$
#192
1$
1#
0"
#195
0#
#196
0$
#198
1$
1#
#201
0#
#202
0$
#204
1$
1#
1"
#207
0#
#208
0$
#210
1$
1#
#213
0#
#214
0$
#216
1$
1#
0"
#219
0#
#220
0$
#222
1$
1#
#225
0#
#226
0$
#228
1$
1#
1"
#231
0#
#232
0$
#234
1$
1#
#237
0#
#238
0$
#240
1$
1#
0"
#243
0#
#244
0$
#246
1$
1#
#249
0#
#250
0$
#252
1$
1#
1"
#255
0#
#256
0$
#258
1$
1#
#261
0#
#262
0$
#264
1$
1#
0"
#267
0#
#268
0$
#270
1$
1#
#273
0#
#274
0$
#276
1$
1#
1"
#279
0#
#280
0$
#282
1$
1#
#285
0#
#286
0$
#288
1$
1#
0"
#291
0#
#292
0$
#294
1$
1#
#297
0#
#298
0$
#300
1$
1#
1"
#303
0#
#304
0$
#306
1$
1#
#309
0#
#310
0$
#312
1$
1#
0"
#315
0#
#316
0$
#318
1$
1#
#321
0#
#322
0$
#324
1$
1#
1"
#327
0#
#328
0$
#330
1$
1#
#333
0#
#334
0$
#336
1$
1#
0"
#339
0#
#340
0$
#342
1$
1#
#345
0#
#346
0$
#348
1$
1#
1"
#351
0#
#352
0$
#354
1$
1#
#357
0#
#358
0$
#360
1$
1#
0"
#363
0#
#364
0$
#366
1$
1#
#369
0#
#370
0$
#372
1$
1#
1"
#375
0#
#376
0$
#378
1$
1#
#381
0#
#382
0$
#384
1$
1#
0"
#387
0#
#388
0$
#390
1$
1#
#393
0#
#394
0$
#396
1$
1#
1"
#399
0#
#400
0$
#402
1$
1#
#405
0#
#406
0$
#408
1$
1#
0"
#411
0#
#412
0$
#414
1$
1#
#417
0#
#418
0$
#420
1$
1#
1"
#423
0#
#424
0$
#426
1$
1#
#429
0#
#430
0$
#432
1$
1#
0"
#435
0#
#436
0$
#438
1$
1#
#441
0#
#442
0$
#444
1$
1#
1"
#447
0#
#448
0$
#450
1$
1#
#453
0#
#454
0$
#456
1$
1#
0"
#459
0#
#460
0$
#462
1$
1#
#465
0#
#466
0$
#468
1$
1#
1"
#471
0#
#472
0$
#474
1$
1#
#477
0#
#478
0$
#480
1$
1#
0"
