Arq. de Comp. I/Atividades_Guais/2024-2_arq1_guia_09/Guia_09GTKWave/ Guia_0906.vcd
$date
	Sat Sep 28 09:19:38 2024
$end
$version
	GTKWave Analyzer v3.3.104 (w)1999-2020 BSI
$end
$timescale
	1 s
$end
$scope module Guia_0906 $end
$var wire 1 " clock_0900 $end
$var wire 1 # p1_0906 $end
$upscope $end
$enddefinitions $end
#0
$dumpvars
x#
0"
$end
#12
1"
#24
0"
1#
#29
0#
#36
1"
#48
0"
1#
#53
0#
#60
1"
#72
0"
1#
#77
0#
#84
1"
#96
0"
1#
#101
0#
#108
1"
#120
0"
1#
#125
0#
#132
1"
#144
0"
1#
#149
0#
#156
1"
#168
0"
1#
#173
0#
#180
1"
#192
0"
1#
#197
0#
#204
1"
#216
0"
1#
#221
0#
#228
1"
#240
0"
1#
#245
0#
#252
1"
#264
0"
1#
#269
0#
#276
1"
#288
0"
1#
#293
0#
#300
1"
#312
0"
1#
#317
0#
#324
1"
#336
0"
1#
#341
0#
#348
1"
#360
0"
1#
#365
0#
#372
1"
#384
0"
1#
#389
0#
#396
1"
#408
0"
1#
#413
0#
#420
1"
#432
0"
1#
#437
0#
#444
1"
#456
0"
1#
#461
0#
#468
1"
#480
0"
1#
